…
###What is the mean of the total number of steps taken per day?

For this part of the assignment, you can ignore the missing values in the dataset.

First we will Calculate the total number of steps taken per day.

library(dplyr)
steps_taken <- data %>%
        group_by(date) %>%
        summarise(steps = sum(steps,na.rm = TRUE))
print(steps_taken)

## # A tibble: 61 x 2
##    date       steps
##    <date>     <int>
##  1 2012-10-01     0
##  2 2012-10-02   126
##  3 2012-10-03 11352
##  4 2012-10-04 12116
##  5 2012-10-05 13294
##  6 2012-10-06 15420
##  7 2012-10-07 11015
##  8 2012-10-08     0
##  9 2012-10-09 12811
## 10 2012-10-10  9900
## # ... with 51 more rows
…
So, the mean of the steps taken each day is 9354 and the median is 10395, like we saw before with the histogram, they are around the ten thousand of steps each day.

###What is the average daily activity pattern?

Let's make a time series plot of the average number of steps taken across all days.

So, First we calculate the average of steps taken each day.

steps_average <- data %>%
        group_by(interval) %>%
        summarise(average = mean(steps,na.rm = TRUE))
print(steps_average)

## # A tibble: 288 x 2
##    interval average
##       <int>   <dbl>
##  1        0  1.72  
##  2        5  0.340 
##  3       10  0.132 
##  4       15  0.151 
##  5       20  0.0755
##  6       25  2.09  
##  7       30  0.528 
##  8       35  0.868 
##  9       40  0     
## 10       45  1.47  
## # ... with 278 more rows
…
##    steps            date          interval      
##  Mode :logical   Mode :logical   Mode :logical  
##  FALSE:17568     FALSE:17568     FALSE:17568

We can see that there is no more NA's in the dataset. 

Let's see how are the steps taken each day in the new data.

library(dplyr)
steps_taken_fill <- fill_NA %>%
        group_by(date) %>%
        summarise(steps = sum(steps))
print(steps_taken_fill)

## # A tibble: 61 x 2
##    date        steps
##    <date>      <dbl>
##  1 2012-10-01 10766.
##  2 2012-10-02   126 
##  3 2012-10-03 11352 
##  4 2012-10-04 12116 
##  5 2012-10-05 13294 
##  6 2012-10-06 15420 
##  7 2012-10-07 11015 
##  8 2012-10-08 10766.
##  9 2012-10-09 12811 
## 10 2012-10-10  9900 
## # ... with 51 more rows
…
#First categorize the normal weekdays
fill_NA$wknd <- fill_NA$wknd <- "Weekday"

#Now, determine the weekend days
fill_NA$wknd[fill_NA$weekdays %in% c("sbado","domingo")] <- "Weekend"

Now that we have the days of the week categorized, let's see the average between them.(sorry for the spanish, don't know why that appear like that)

week_average <- fill_NA %>%
        group_by(wknd,interval) %>%
        summarise(average = mean(steps))
print(week_average)

## # A tibble: 576 x 3
## # Groups:   wknd [2]
##    wknd    interval average
##    <chr>      <int>   <dbl>
##  1 Weekday        0  2.25  
##  2 Weekday        5  0.445 
##  3 Weekday       10  0.173 
##  4 Weekday       15  0.198 
##  5 Weekday       20  0.0990
##  6 Weekday       25  1.59  
##  7 Weekday       30  0.693 
##  8 Weekday       35  1.14  
##  9 Weekday       40  0     
## 10 Weekday       45  1.80  
## # ... with 566 more rows
…
